{
  "id": "tt8946378",
  "imdbRating": 7.9,
  "description": "A detective investigates the death of the patriarch of an eccentric, combative family.",
  "genres": [
    "Comedy",
    "Crime",
    "Drama"
  ],
  "directors": [
    "Rian Johnson"
  ],
  "actors": [
    "Daniel Craig",
    "Chris Evans",
    "Ana de Armas"
  ],
  "poster": [
    {
      "scale": 1,
      "url": "/tt8946378/poster.jpg"
    },
    {
      "scale": 2,
      "url": "/tt8946378/poster@2x.jpg"
    },
    {
      "scale": 3,
      "url": "/tt8946378/poster@3x.jpg"
    }
  ]
}