{
  "id": "tt15791034",
  "imdbRating": 7.3,
  "description": "A woman staying at an Airbnb discovers that the house she has rented is not what it seems.",
  "genres": [
    "Horror",
    "Thriller"
  ],
  "directors": [
    "Zach Cregger"
  ],
  "actors": [
    "Georgina Campbell",
    "Bill Skarsgård",
    "Justin Long"
  ],
  "poster": [
    {
      "scale": 1,
      "url": "/tt15791034/poster.jpg"
    },
    {
      "scale": 2,
      "url": "/tt15791034/poster@2x.jpg"
    },
    {
      "scale": 3,
      "url": "/tt15791034/poster@3x.jpg"
    }
  ]
}