{
  "id": "tt8912936",
  "imdbRating": 7.3,
  "description": "Krypto the Super-Dog and Superman are inseparable best friends, sharing the same superpowers and fighting crime side by side in Metropolis. However, Krypto must master his own powers for a rescue mission when Superman is kidnapped.",
  "genres": [
    "Animation",
    "Action",
    "Adventure"
  ],
  "directors": [
    "Jared Stern",
    "Sam J. Levine"
  ],
  "actors": [
    "Dwayne Johnson",
    "Kevin Hart",
    "Kate McKinnon"
  ],
  "poster": [
    {
      "scale": 1,
      "url": "/tt8912936/poster.jpg"
    },
    {
      "scale": 2,
      "url": "/tt8912936/poster@2x.jpg"
    },
    {
      "scale": 3,
      "url": "/tt8912936/poster@3x.jpg"
    }
  ]
}