{
  "id": "tt2935622",
  "imdbRating": 5.9,
  "description": "Best friends Sophie and Agatha find themselves on opposing sides of an epic battle when they're swept away into an enchanted school where aspiring heroes and villains are trained to protect the balance between Good and Evil.",
  "genres": [
    "Action",
    "Comedy",
    "Drama"
  ],
  "directors": [
    "Paul Feig"
  ],
  "actors": [
    "Kit Young",
    "Sophia Anne Caruso",
    "Cate Blanchett"
  ],
  "poster": [
    {
      "scale": 1,
      "url": "/tt2935622/poster.jpg"
    },
    {
      "scale": 2,
      "url": "/tt2935622/poster@2x.jpg"
    },
    {
      "scale": 3,
      "url": "/tt2935622/poster@3x.jpg"
    }
  ]
}