{
  "id": "tt13669038",
  "imdbRating": 7.7,
  "description": "In 2010, the women of an isolated religious community grapple with reconciling their reality with their faith. Based on the novel by Miriam Toews.",
  "genres": [
    "Drama"
  ],
  "directors": [
    "Sarah Polley"
  ],
  "actors": [
    "Rooney Mara",
    "Claire Foy",
    "Jessie Buckley"
  ],
  "poster": [
    {
      "scale": 1,
      "url": "/tt13669038/poster.jpg"
    },
    {
      "scale": 2,
      "url": "/tt13669038/poster@2x.jpg"
    },
    {
      "scale": 3,
      "url": "/tt13669038/poster@3x.jpg"
    }
  ]
}