{
  "id": "tt11866324",
  "imdbRating": 7.2,
  "description": "Naru, a skilled warrior of the Comanche Nation, fights to protect her tribe against one of the first highly-evolved Predators to land on Earth.",
  "genres": [
    "Action",
    "Adventure",
    "Drama"
  ],
  "directors": [
    "Dan Trachtenberg"
  ],
  "actors": [
    "Amber Midthunder",
    "Dakota Beavers",
    "Dane DiLiegro"
  ],
  "poster": [
    {
      "scale": 1,
      "url": "/tt11866324/poster.jpg"
    },
    {
      "scale": 2,
      "url": "/tt11866324/poster@2x.jpg"
    },
    {
      "scale": 3,
      "url": "/tt11866324/poster@3x.jpg"
    }
  ]
}