{
  "id": "tt0887261",
  "imdbRating": 6.0,
  "description": "A take on Clive Barker's 1987 horror classic where a young woman struggling with addiction comes into possession of an ancient puzzle box, unaware that its purpose is to summon the Cenobites.",
  "genres": [
    "Horror",
    "Mystery",
    "Thriller"
  ],
  "directors": [
    "David Bruckner"
  ],
  "actors": [
    "Odessa A’zion",
    "Jamie Clayton",
    "Adam Faison"
  ],
  "poster": [
    {
      "scale": 1,
      "url": "/tt0887261/poster.jpg"
    },
    {
      "scale": 2,
      "url": "/tt0887261/poster@2x.jpg"
    },
    {
      "scale": 3,
      "url": "/tt0887261/poster@3x.jpg"
    }
  ]
}