{
  "id": "tt0084516",
  "imdbRating": 7.3,
  "description": "A family's home is haunted by a host of demonic ghosts.",
  "genres": [
    "Horror",
    "Thriller"
  ],
  "directors": [
    "Tobe Hooper"
  ],
  "actors": [
    "JoBeth Williams",
    "Heather O'Rourke",
    "Craig T. Nelson"
  ],
  "poster": [
    {
      "scale": 1,
      "url": "/tt0084516/poster.jpg"
    },
    {
      "scale": 2,
      "url": "/tt0084516/poster@2x.jpg"
    },
    {
      "scale": 3,
      "url": "/tt0084516/poster@3x.jpg"
    }
  ]
}