{
  "id": "tt15474916",
  "imdbRating": 6.9,
  "description": "After witnessing a bizarre, traumatic incident involving a patient, Dr. Rose Cotter starts experiencing frightening occurrences that she can't explain. Rose must confront her troubling past in order to survive and escape her horri...",
  "genres": [
    "Horror"
  ],
  "directors": [
    "Parker Finn"
  ],
  "actors": [
    "Sosie Bacon",
    "Jessie T. Usher",
    "Kyle Gallner"
  ],
  "poster": [
    {
      "scale": 1,
      "url": "/tt15474916/poster.jpg"
    },
    {
      "scale": 2,
      "url": "/tt15474916/poster@2x.jpg"
    },
    {
      "scale": 3,
      "url": "/tt15474916/poster@3x.jpg"
    }
  ]
}