{
  "id": "tt11128440",
  "imdbRating": 6.5,
  "description": "Dante, Elias, and Jay and Silent Bob are enlisted by Randal after a heart attack to make a movie about the convenience store that started it all.",
  "genres": [
    "Comedy"
  ],
  "directors": [
    "Kevin Smith"
  ],
  "actors": [
    "Brian O'Halloran",
    "Jeff Anderson",
    "Vincent Pereira"
  ],
  "poster": [
    {
      "scale": 1,
      "url": "/tt11128440/poster.jpg"
    },
    {
      "scale": 2,
      "url": "/tt11128440/poster@2x.jpg"
    },
    {
      "scale": 3,
      "url": "/tt11128440/poster@3x.jpg"
    }
  ]
}