{
  "id": "tt17196124",
  "imdbRating": 4.3,
  "description": "A suburban teen girl and her little brother must stop a terrifying internet meme brought to life by the hysteria of their parents.",
  "genres": [
    "Drama",
    "Horror",
    "Mystery"
  ],
  "directors": [
    "John Ross"
  ],
  "actors": [
    "Shannyn Sossamon",
    "Sara Wolfkind",
    "Usman Ally"
  ],
  "poster": [
    {
      "scale": 1,
      "url": "/tt17196124/poster.jpg"
    },
    {
      "scale": 2,
      "url": "/tt17196124/poster@2x.jpg"
    },
    {
      "scale": 3,
      "url": "/tt17196124/poster@3x.jpg"
    }
  ]
}