{
  "id": "tt0241527",
  "imdbRating": 7.6,
  "description": "An orphaned boy enrolls in a school of wizardry, where he learns the truth about himself, his family and the terrible evil that haunts the magical world.",
  "genres": [
    "Adventure",
    "Family",
    "Fantasy"
  ],
  "directors": [
    "Chris Columbus"
  ],
  "actors": [
    "Daniel Radcliffe",
    "Rupert Grint",
    "Richard Harris"
  ],
  "poster": [
    {
      "scale": 1,
      "url": "/tt0241527/poster.jpg"
    },
    {
      "scale": 2,
      "url": "/tt0241527/poster@2x.jpg"
    },
    {
      "scale": 3,
      "url": "/tt0241527/poster@3x.jpg"
    }
  ]
}