{
  "id": "tt8110652",
  "imdbRating": 6.3,
  "description": "When a group of rich 20-somethings plan a hurricane party at a remote family mansion, a party game turns deadly in this fresh and funny look at backstabbing, fake friends, and one party gone very, very wrong.",
  "genres": [
    "Comedy",
    "Horror",
    "Thriller"
  ],
  "directors": [
    "Halina Reijn"
  ],
  "actors": [
    "Amandla Stenberg",
    "Maria Bakalova",
    "Rachel Sennott"
  ],
  "poster": [
    {
      "scale": 1,
      "url": "/tt8110652/poster.jpg"
    },
    {
      "scale": 2,
      "url": "/tt8110652/poster@2x.jpg"
    },
    {
      "scale": 3,
      "url": "/tt8110652/poster@3x.jpg"
    }
  ]
}